INTERCONNECTOR_ID,FROM_NODE,FROM_REGION,TO_NODE,TO_REGION,VOLTAGE_KV
N-Q-MNSP1,213,NSW1,728,QLD1,110
NSW1-QLD1,379,NSW1,802,QLD1,330
V-SA,55,VIC1,800,SA1,275
VIC1-NSW1,246,VIC1,612,NSW1,330
VIC1-NSW1,246,VIC1,613,NSW1,330
VIC1-NSW1,826,VIC1,8,NSW1,330
VIC1-NSW1,981,VIC1,982,NSW1,220
VIC1-NSW1,246,VIC1,247,NSW1,132
